<?xml version="1.0" encoding="utf-8"?>
<!-- Generator: Adobe Illustrator 23.0.1, SVG Export Plug-In . SVG Version: 6.00 Build 0)  -->
<svg version="1.1" id="レイヤー_1" xmlns="http://www.w3.org/2000/svg" xmlns:xlink="http://www.w3.org/1999/xlink" x="0px"
	 y="0px" width="58px" height="13px" viewBox="0 0 58 13" style="enable-background:new 0 0 58 13;" xml:space="preserve">
<style type="text/css">
	.st0{fill:#FFFFFF;}
</style>
<g>
	<path class="st0" d="M10.7,12.5v-1.5H9c-0.4,0-0.8-0.2-0.8-0.7V2.1h0.9c1.7,0,2.5,1.3,2.5,2.9v0.2h1.7V0.5H0v4.6h1.7V5
		c0-1.6,0.8-2.9,2.5-2.9h1v8.3c0,0.5-0.4,0.7-0.8,0.7H2.6v1.5H10.7z"/>
	<path class="st0" d="M26,1.2C24.8,0.3,22.6,0,21.3,0c-1.3,0-3.4,0.3-4.7,1.2c-1.2,0.9-2.4,2.6-2.4,5.3c0,2.7,1.2,4.3,2.4,5.3
		c1.2,0.9,3.4,1.2,4.7,1.2c1.3,0,3.4-0.3,4.7-1.2c1.2-0.9,2.5-2.6,2.5-5.3C28.4,3.8,27.2,2.2,26,1.2 M24.1,10.2
		c-0.6,0.8-1.7,1.3-2.7,1.3c-1,0-2.1-0.4-2.7-1.3c-0.6-0.8-0.9-2.4-0.9-3.7c0-1.3,0.3-2.9,0.9-3.7c0.6-0.8,1.7-1.3,2.7-1.3
		c1.1,0,2.1,0.4,2.7,1.3C24.7,3.6,25,5.2,25,6.5C25,7.7,24.7,9.4,24.1,10.2"/>
	<path class="st0" d="M40.2,12.5v-1.5h-1.7c-0.4,0-0.8-0.2-0.8-0.7V2.1h0.9c1.7,0,2.5,1.3,2.5,2.9v0.2h1.7V0.5H29.6v4.6h1.7V5
		c0-1.6,0.8-2.9,2.5-2.9h0.9v8.3c0,0.5-0.4,0.7-0.8,0.7h-1.7v1.5H40.2z"/>
	<path class="st0" d="M55.6,1.2C54.4,0.3,52.2,0,50.9,0c-1.3,0-3.4,0.3-4.7,1.2c-1.2,0.9-2.4,2.6-2.4,5.3c0,2.7,1.2,4.3,2.4,5.3
		c1.2,0.9,3.4,1.2,4.7,1.2c1.3,0,3.4-0.3,4.7-1.2c1.2-0.9,2.4-2.6,2.4-5.3C58,3.8,56.8,2.2,55.6,1.2 M53.6,10.2
		C53,11,52,11.4,50.9,11.4c-1.1,0-2.1-0.4-2.7-1.3c-0.6-0.8-0.9-2.4-0.9-3.7c0-1.3,0.3-2.9,0.9-3.7c0.6-0.8,1.7-1.3,2.7-1.3
		c1,0,2.1,0.4,2.7,1.3c0.6,0.8,0.9,2.4,0.9,3.7C54.6,7.7,54.3,9.4,53.6,10.2"/>
</g>
</svg>
